{
  "cviceni": {
    "version": {
      "global": "<%= version %>",
      "content": 1
    },
    "katalog": [],
    "language": "cs",
    "slug": "iwojima",
    "nazev": "Vztyčování vlajky",
    "autor": [],
    "klicovaSlova": [],
    "anotace": {
      "ucitel": "",
      "verejna": ""
    },
    "trvani": 0,
    "funkce": [
      "lupa",
      "text",
      "svg",
      "znacky"
    ],
    "pdf": {
      "doporucenyPostup": "iwojima.pdf"
    },
    "uvodniObrazek": "iwojima/pic-01-1280w.jpg",
    "id": 8
  },
  "slajd": [
    {
      "class": [
        ""
      ],
      "zadani": {
        "hlavni": "Prohlédněte si fotografii.",
        "rozsirujici": "Popište, co je na fotografii zachyceno."
      },
      "napoveda": {
        "aktivity": [
          "lupa",
          "text"
        ],
        "text": "Při kliknutí levým tlačítkem do obrazu lupa přiblíží část obrazu ve výřezu."
      },
      "prameny": [
        "iwojima/pic-00-1280w.jpg"
      ],
      "popisky": [
        ""
      ],
      "uzivatelskyText": {
        "otazky": [
          {
            "id": "text-0",
            "instrukce": "Popis fotografie…",
            "minDelka": 0,
            "maxDelka": 400
          }
        ]
      }
    },
    {
      "class": [
        ""
      ],
      "zadani": {
        "hlavni": "Prohlédněte si druhou fotografii.",
        "rozsirujici": "Co zachycuje tato fotografie?"
      },
      "napoveda": {
        "aktivity": [
          "lupa",
          "text"
        ],
        "text": "Při kliknutí levým tlačítkem do obrazu lupa přiblíží část obrazu ve výřezu."
      },
      "prameny": [
        "iwojima/pic-01-1280w.jpg"
      ],
      "popisky": [
        ""
      ],
      "uzivatelskyText": {
        "otazky": [
          {
            "id": "text-1",
            "instrukce": "Popis fotografie…",
            "minDelka": 0,
            "maxDelka": 400
          }
        ]
      }
    },
    {
      "class": [
        "half-slide-previous"
      ],
      "zadani": {
        "hlavni": "Srovnejte fotografie, označte a popište rozdíly.",
        "rozsirujici": "Označte modrým bodem a popiskem prvky, jež jsou na fotografii stejné nebo podobné. Červeným bodem a popiskem prvky, jež jsou odlišné."
      },
      "napoveda": {
        "aktivity": [
          "svg"
        ],
        "text": "Kliknutím na snímek levým tlačítkem myši označujete bod. Nakliknutím na bod pravým tlačítkem otevřete menu s nabídkou úkonů: změnit barvu bodu, (T) doplnit textový komentář, (X) smazat nakliknutý objekt."
      },
      "svg": {
        "soubory": [
          {
            "id": "svg-0",
            "soubor": "iwojima/pic-00-1024w.jpg",
            "funkce": [
              "text",
              "znacky"
            ]
          },
          {
            "id": "svg-1",
            "soubor": "iwojima/pic-01-1024w.jpg",
            "funkce": [
              "text",
              "znacky"
            ]
          }
        ]
      },
      "popisky": [
        "Vztyčování americké vlajky na Ivodžimě, 23. 2. 1945, fotografoval Joe Rosenthal.",
        "Památník americké námořní pěchoty v Arlingtonu."
      ]
    },
    {
      "class": [
        "half-slide-active"
      ],
      "zadani": {
        "hlavni": "Proč byl vystavěn pomník podle fotografie?",
        "rozsirujici": ""
      },
      "napoveda": {
        "aktivity": [
          "text"
        ],
        "text": "Do boxu pro text zapisujete odpověď na otázku, nebo jiný komentář (dle zadání)."
      },
      "uzivatelskyText": {
        "otazky": [
          {
            "id": "text-2",
            "instrukce": "Myslím si, že…",
            "minDelka": 0,
            "maxDelka": 400
          },
          {
            "id": "text-3",
            "zadani": "Popište, jaké sdělení nabízí fotografie a jaké pomník?",
            "instrukce": "Myslím si, že…",
            "minDelka": 0,
            "maxDelka": 400
          },
          {
            "id": "text-4",
            "zadani": "V čem se odlišuje způsob zobrazení události?",
            "instrukce": "Myslím si, že…",
            "minDelka": 0,
            "maxDelka": 400
          }
        ]
      }
    }
  ]
}