{
  "cviceni": {
    "version": {
      "global": "<%= version %>",
      "content": 2
    },
    "katalog": [
      "test",
      "public"
    ],
    "language": "cs",
    "slug": "proc-vydali-znamku",
    "nazev": "Proč vydali známku?",
    "autor": [
      "Petr Sedlák",
      "Radovan Lovčí"
    ],
    "klicovaSlova": [
      "první světová válka",
      "ČSR v meziválečné době",
      "politika paměti",
      "historický význam",
      "uspořádáváme zdroje"
    ],
    "anotace": {
      "ucitel": "Žáci zkoumají známku, která vyšla v Československu k 20. výročí bitvy u Zborova. Pokouší se určit symbolické významy zobrazených vojáků. Uspořádávají informace o známce z dobových dokumentů, aby porozuměli důvodům jejího vzniku.",
      "verejna": "Porovnáte fotografii a známku. Na obou jsou vojáci Československé střelecké brigády. Fotografie byla pořízena v zákopech v době bitvy u Zborova roku 1917. Známka byla navržena a vydána o dvacet let později. Jak souvisí vyobrazení mužů na známce s důvody, proč známka vznikla?"
    },
    "trvani": 30,
    "funkce": [
      "lupa",
      "cteni",
      "text",
      "svg",
      "znacky",
      "text-editor",
      "pretahovani"
    ],
    "pdf": {
      "doporucenyPostup": "proc-vydali-znamku.pdf"
    },
    "uvodniObrazek": "proc-vydali-znamku/pic-05-1024h.jpg",
    "id": 75
  },
  "slajd": [
    {
      "zadani": {
        "hlavni": "Prohlédněte si známku.",
        "rozsirujici": ""
      },
      "napoveda": {
        "aktivity": [
          "lupa"
        ],
        "text": "Při kliknutí levým tlačítkem do obrazu lupa přiblíží část obrazu ve výřezu."
      },
      "prameny": [
        "proc-vydali-znamku/pic-05-1024h.jpg"
      ],
      "popisky": [
        "Pamětní známka vydaná k 20. výročí bitvy u Zborova. Zdroj: archiv autora"
      ]
    },
    {
      "zadani": {
        "hlavni": "Co je na známce?",
        "rozsirujici": "Prozkoumejte další prameny. Vyznačte na známce tři skutečnosti, které souvisí s historickou událostí, jež je na ní znázorněna."
      },
      "napoveda": {
        "aktivity": [
          "svg"
        ],
        "text": "Kliknutím na snímek levým tlačítkem myši označujete bod. Nakliknutím na bod pravým tlačítkem otevřete menu s nabídkou úkonů: změnit barvu bodu, (T) doplnit textový komentář, (X) smazat nakliknutý objekt."
      },
      "svg": {
        "nastaveni": {
          "layout": "horizontalni"
        },
        "galerie": [
          {
            "soubor": "proc-vydali-znamku/pic-04-1024h.jpg",
            "popisek": "Oslava dvacátého výročí bitvy u Zborova 2. VII. 1917. Zdroj: Věstník Ministerstva pošt a telegrafů č. 31, 10. června 1937"
          },
          {
            "soubor": "proc-vydali-znamku/pic-03-1024h.jpg",
            "popisek": "Československá pošta k 20. výroční slavné bitvy u Zborova 2. VII. 1917. Zdroj: Věstník Ministerstva pošt a telegrafů č. 31, 10. června 1937"
          },
          {
            "soubor": "proc-vydali-znamku/pic-06-1024w.jpg",
            "popisek": "Vojáci Československé střelecké brigády v zákopech v době bitvy u Zborova, červenec 1917. Zdroj: Věstník Ministerstva pošt a telegrafů č. 31, 10. června 1937"
          }
        ],
        "soubory": [
          {
            "id": "svg-1",
            "soubor": "proc-vydali-znamku/pic-05-1024h.jpg",
            "funkce": [
              "text",
              "znacky"
            ]
          }
        ]
      },
      "popisky": [
        "Pamětní známka vydaná k 20. výročí bitvy u Zborova. Zdroj: archiv autora"
      ]
    },
    {
      "class": "half-slide-previous",
      "zadani": {
        "hlavni": "Co charakterizuje muže na známce?",
        "rozsirujici": "Vyberte tři charakteristiky z nabídky."
      },
      "napoveda": {
        "aktivity": [
          "razeni",
          "svg"
        ],
        "text": "Pomocí drag and drop přesouvejte položky z nabídky do obrázku. Do obrázku můžete také kreslit a zapisovat další informace."
      },
      "svg": {
        "nastaveni": {
          "layout": "horizontalni"
        },
        "pretahovani": {
          "id": "pretahovani-1",
          "items": [
            {
              "objekt": "statečnost",
              "medium": "tag"
            },
            {
              "objekt": "odhodlání",
              "medium": "tag"
            },
            {
              "objekt": "zádumčivost",
              "medium": "tag"
            },
            {
              "objekt": "smířlivost",
              "medium": "tag"
            },
            {
              "objekt": "hrdost",
              "medium": "tag"
            },
            {
              "objekt": "ostražitost",
              "medium": "tag"
            },
            {
              "objekt": "podpora",
              "medium": "tag"
            }
          ]
        },
        "soubory": [
          {
            "id": "svg-2",
            "soubor": "proc-vydali-znamku/pic-05-1024h.jpg",
            "funkce": [
              "text",
              "znacky"
            ],
            "drop": true
          }
        ]
      },
      "popisky": [
        "Pamětní známka vydaná k 20. výročí bitvy u Zborova. Zdroj: archiv autora"
      ]
    },
    {
      "class": "half-slide-active",
      "zadani": {
        "hlavni": "Co charakterizuje muže na fotografii?",
        "rozsirujici": "Opět vyberte tři charakteristiky z nabídky."
      },
      "napoveda": {
        "aktivity": [
          "razeni",
          "svg"
        ],
        "text": "Pomocí drag and drop přesouvejte položky z nabídky do obrázku. Do obrázku můžete také kreslit a zapisovat další informace."
      },
      "svg": {
        "nastaveni": {
          "layout": "vertikalni"
        },
        "pretahovani": {
          "id": "pretahovani-2",
          "items": [
            {
              "objekt": "statečnost",
              "medium": "tag"
            },
            {
              "objekt": "odhodlání",
              "medium": "tag"
            },
            {
              "objekt": "zádumčivost",
              "medium": "tag"
            },
            {
              "objekt": "smířlivost",
              "medium": "tag"
            },{
              "objekt": "hrdost",
              "medium": "tag"
            },
            {
              "objekt": "ostražitost",
              "medium": "tag"
            },
            {
              "objekt": "podpora",
              "medium": "tag"
            }
          ]
        },
        "soubory": [
          {
            "id": "svg-3",
            "soubor": "proc-vydali-znamku/pic-06-1024w.jpg",
            "funkce": [
              "text",
              "znacky"
            ],
            "drop": true
          }
        ]
      },
      "popisky": [
        "Vojáci Československé střelecké brigády v zákopech v době bitvy u Zborova, červenec 1917. Zdroj: Věstník Ministerstva pošt a telegrafů č. 31, 10. června 1937"
      ]
    },
    {
      "class": "half-slide-previous",
      "zadani": {
        "hlavni": "Pracujte s textem, který informuje o vydání známky.",
        "rozsirujici": "Co text vypovídá o známce? Označte pasáže, které vám pomohou odpovědět, proč vydali známku. Přihlédněte k dalším zdrojům v galerii."
      },
      "napoveda": {
        "aktivity": [
          "lupa",
          "cteni"
        ],
        "text": "Kliknutím levého tlačítka do obrazu a jeho podržením lupa přiblíží část obrazu ve výřezu."
      },
      "textovyEditor": {
        "galerie": [
          {
            "soubor": "proc-vydali-znamku/pic-01-1024h.jpg",
            "popisek": "Zdroj: Věstník Ministerstva pošt a telegrafů č. 31, 10. června 1937"
          },
          {
            "soubor": "proc-vydali-znamku/pic-02-1024h.jpg",
            "popisek": "Zdroj: Věstník Ministerstva pošt a telegrafů č. 31, 10. června 1937"
          },
          {
            "soubor": "proc-vydali-znamku/pic-03-1024h.jpg",
            "popisek": "Zdroj: Věstník Ministerstva pošt a telegrafů č. 31, 10. června 1937"
          },
          {
            "soubor": "proc-vydali-znamku/pic-00-1024h.jpg",
            "popisek": "Zdroj: Tribuna filatelistů č. 12, 12. června 1937"
          }
        ],
        "texty": [
          {
            "id": "editor-1",
            "text": "text-00",
            "funkce": "zvyraznovani",
            "menu": [
              {
                "title": "Označit pasáž",
                "commandName": "zobrazovan",
                "classes": "text-gray",
                "command": "toggle-class",
                "commandOptions": {
                  "toggleClass": "node-selected node-text-gray",
                  "closeBtn": true,
                  "comments": false,
                  "commentsClass": "text-gray"
                }
              }
            ]
          }
        ]
      }
    },
    {
      "class": "half-slide-active",
      "zadani": {
        "hlavni": "Odpovězte na otázky.",
        "rozsirujici": ""
      },
      "napoveda": {
        "aktivity": [
          "text"
        ],
        "text": "Do boxu pro text zapisujete odpověď na otázku, nebo jiný komentář (dle zadání)."
      },
      "uzivatelskyText": {
        "otazky": [
          {
            "id": "text-1",
            "zadani": "V čem se liší známka a fotografie?",
            "instrukce": "Myslím si, že…",
            "maxDelka": 400
          },
          {
            "id": "text-2",
            "zadani": "Proč vydali známku?",
            "instrukce": "Myslím si, že…",
            "maxDelka": 400
          }
        ]
      }
    }
  ]
}
